Qualcomm Technologies Inc. DANIPC driver

This is a kernel driver which makes use of DAN IPC hardware module.
DAN IPC is an inter-processor communication network which provides facilities
for fast and reliable data passing between processors.

Required properties:
- compatible:	should be "qcom,danipc"
- reg-names:	"ipc_bufs" - APPS IPC buffers region
		"agent_table" - IPC global agent table region
		"apps_ipc_intr_en" - APPS IPC interrupt enable MUX region
		"phycpu0_ipc" - PHY CPU0 IPC region
		"phycpu1_ipc" - PHY CPU1 IPC region
		"phycpu2_ipc" - PHY CPU2 IPC region
		"phycpu3_ipc" - PHY CPU3 IPC region
		"phydsp0_ipc" - PHY DSP0 IPC region
		"phydsp1_ipc" - PHY DSP1 IPC region
		"phydsp2_ipc" - PHY DSP2 IPC region
		"apps_ipc" - APPS IPC region
		"qdsp6_0_ipc" - QDSP6 0 IPC region
		"qdsp6_1_ipc" - QDSP6 1 IPC region
		"qdsp6_2_ipc" - QDSP6 2 IPC region
		"qdsp6_3_ipc" - QDSP6 3 IPC region
		"apps_ipc_pcap" - APPS IPC region for PCAP
		"apps_hex_ipc_log" - APPS IPC region for Hexagon binary logging
- reg:		location and size of APPS IPC buffers
		location and size of IPC global agent table
		location and size of APPS IPC interrupt enable MUX
		location and size of PHY CPU0 IPC region
		location and size of PHY CPU1 IPC region
		location and size of PHY CPU2 IPC region
		location and size of PHY CPU3 IPC region
		location and size of PHY DSP0 IPC region
		location and size of PHY DSP1 IPC region
		location and size of PHY DSP2 IPC region
		location and size of APPS IPC region
		location and size of QDSP6 0 IPC region
		location and size of QDSP6 1 IPC region
		location and size of QDSP6 2 IPC region
		location and size of QDSP6 3 IPC region
		location and size of PHY PCAP IPC region
- interrupts:	IPC interrupt line

Optional properties:
	-qcom,phycpu0-shm-size: size of shared memory region for PHY CPU0
	-qcom,phycpu1-shm-size: size of shared memory region for PHY CPU1
	-qcom,phycpu2-shm-size: size of shared memory region for PHY CPU2
	-qcom,phycpu3-shm-size: size of shared memory region for PHY CPU3
	-qcom,phydsp0-shm-size: size of shared memory region for PHY DSP0
	-qcom,phydsp1-shm-size: size of shared memory region for PHY DSP1
	-qcom,phydsp2-shm-size: size of shared memory region for PHY DSP2
	-qcom,apps-shm-size: size of shared memory region for APPS
	-qcom,qdsp6-0-shm-size: size of shared memory region for QDSP6 0
	-qcom,qdsp6-1-shm-size: size of shared memory region for QDSP6 1
	-qcom,qdsp6-2-shm-size: size of shared memory region for QDSP6 2
	-qcom,qdsp6-3-shm-size: size of shared memory region for QDSP6 3
	-ul-bufs: starting address and size of UL buffer region
	-dl-bufs: starting address and size of DL buffer region
	-memory-region: starting address and size of memory region owned by
	 remote CPU.

Note:
ipc_bufs should not be defined for targets that support the flexible memory
map.
ul-bufs and dl-bufs is added dynamically by the board init file for fsm9900.
It is not used by fsm9010.


Examples:
	qcom,danipc@0xfe803c00 {
		compatible = "qcom,danipc";
		reg-names = "agent_table", "apps_ipc_intr_en",
			"phycpu0_ipc", "phycpu1_ipc", "phycpu2_ipc",
			"phycpu3_ipc", "phydsp0_ipc", "phydsp1_ipc",
			"phydsp2_ipc", "apps_ipc_data",
			"qdsp6_0_ipc", "qdsp6_1_ipc", "qdsp6_2_ipc",
			"qdsp6_3_ipc", "apps_ipc_pcap",
			"apps_hex_ipc_log";
		reg = <0xfe803c00 0x400>, /* mem_map */
			<0x19d00000 0x80000>, /* agent_table */
			<0xfd4a3500 0x100>, /* apps_ipc_intr_en */
			<0xf683a000 0x100>, /* phycpu0_ipc */
			<0xf683a000 0x100>, /* phycpu1_ipc */
			<0xf683c000 0x100>, /* phycpu2_ipc */
			<0xf683c000 0x100>, /* phycpu3_ipc */
			<0xf6862000 0x100>, /* phydsp0_ipc */
			<0xf6862000 0x100>, /* phydsp1_ipc */
			<0xf6878000 0x100>, /* phydsp2_ipc */
			<0xfd490000 0x100>, /* apps_ipc_data */
			<0xfd491000 0x100>, /* qdsp6_0_ipc */
			<0xfd492000 0x100>, /* qdsp6_1_ipc */
			<0xfd496000 0x100>, /* qdsp6_2_ipc */
			<0xfd494000 0x100>, /* qdsp6_3_ipc */
			<0xfd487000 0x100>, /* apps_ipc_pcap */
			<0xfd488000 0x100>; /* apps_hex_ipc_log */
		interrupts = <0 202 0>, <0 203 0>, <0 204 0>, <0 205 0>;
	};

	qcom,danipc@22000000 {
		compatible = "qcom,danipc";
		reg-names = "ipc_bufs", "agent_table", "apps_ipc_intr_en",
			"phycpu0_ipc", "phycpu1_ipc", "phycpu2_ipc",
			"phydsp0_ipc", "phydsp1_ipc", "apps_ipc_data",
			"qdsp6_0_ipc", "qdsp6_1_ipc", "apps_ipc_pcap";
		reg = <0x22000000 0x100000>, /* ipc_bufs */
			<0x13e60000 0x2000>, /* agent_table */
			<0xfd4a3500 0x100>, /* apps_ipc_intr_en */
			<0xf683a000 0x100>, /* phycpu0_ipc */
			<0xf683a000 0x100>, /* phycpu1_ipc */
			<0xf683c000 0x100>, /* phycpu2_ipc */
			<0xf683c000 0x100>, /* phydsp0_ipc */
			<0xf6862000 0x100>, /* phydsp1_ipc */
			<0xfd490000 0x100>, /* apps_ipc_data */
			<0xfd491000 0x100>, /* qdsp6_0_ipc */
			<0xfd496000 0x100>, /* qdsp6_1_ipc */
			<0xfd487000 0x100>; /* apps_ipc_pcap */
		qcom,qdsp6-1-shm-size = <0x2000000>;
		interrupts = <0 202 0>, <0 203 0>;
	};
